build-strace_test-Desktop-Debug/out.vcd
$date
     Feb 20, 2020       22:21:48
$end

$version
 SystemC 2.3.3-Accellera --- Feb 20 2020 22:18:19
$end

$timescale
     1 ps
$end

$scope module SystemC $end
$var wire    1  aaaaa  TOP=>CLK       $end
$var wire    1  aaaab  TOP=>RESET       $end
$var wire    1  aaaac  TOP=>LOAD       $end
$var wire    4  aaaad  TOP=>LOAD_VALUE [3:0]  $end
$var wire    8  aaaai  Counter8Bit=>Qout [7:0]  $end
$var wire    1  aaaaj  Counter8Bit=>Overflow       $end
$var wire    4  aaaak  Counter4Bit=>Qout [3:0]  $end
$var wire    1  aaaal  Counter4Bit=>Overflow       $end
$scope module Counter8Bit $end
$var wire    4  aaaae  High=>Qout [3:0]  $end
$var wire    1  aaaaf  High=>Overflow       $end
$var wire    4  aaaag  Low=>Qout [3:0]  $end
$var wire    1  aaaah  Low=>Overflow       $end
$upscope $end
$upscope $end
$enddefinitions  $end

$comment
All initial values are dumped below at time 0 sec = 0 timescale units.
$end

$dumpvars
1aaaaa
1aaaab
0aaaac
b0 aaaad
b0 aaaae
0aaaaf
b0 aaaag
0aaaah
b0 aaaai
0aaaaj
b0 aaaak
0aaaal
$end

#500
0aaaaa

#1000
1aaaaa

#1500
0aaaaa

#2000
1aaaaa

#2500
0aaaaa

#3000
1aaaaa

#3500
0aaaaa

#4000
1aaaaa

#4500
0aaaaa

#5000
1aaaaa
b110 aaaad

#5500
0aaaaa

#6000
1aaaaa
0aaaab
1aaaac
b110 aaaak

#6500
0aaaaa

#7000
1aaaaa
0aaaac
b1 aaaag
b111 aaaak

#7500
0aaaaa

#8000
1aaaaa
b10 aaaag
b1 aaaai
b1000 aaaak

#8500
0aaaaa

#9000
1aaaaa
b11 aaaag
b10 aaaai
b1001 aaaak

#9500
0aaaaa

#10000
1aaaaa
b100 aaaag
b11 aaaai
b1010 aaaak

#10500
0aaaaa

#11000
1aaaaa
b101 aaaag
b100 aaaai
b1011 aaaak

#11500
0aaaaa

#12000
1aaaaa
b110 aaaag
b101 aaaai
b1100 aaaak

#12500
0aaaaa

#13000
1aaaaa
b111 aaaag
b110 aaaai
b1101 aaaak

#13500
0aaaaa

#14000
1aaaaa
b1000 aaaag
b111 aaaai
b1110 aaaak

#14500
0aaaaa

#15000
1aaaaa
b1001 aaaag
b1000 aaaai
b1111 aaaak

#15500
0aaaaa

#16000
1aaaaa
b1010 aaaag
b1001 aaaai
b0 aaaak
1aaaal

#16500
0aaaaa

#17000
1aaaaa
b1011 aaaag
b1010 aaaai
b1 aaaak
0aaaal

#17500
0aaaaa

#18000
1aaaaa
b1100 aaaag
b1011 aaaai
b10 aaaak

#18500
0aaaaa

#19000
1aaaaa
b1101 aaaag
b1100 aaaai
b11 aaaak

#19500
0aaaaa

#20000
1aaaaa
b1110 aaaag
b1101 aaaai
b100 aaaak

#20500
0aaaaa

#21000
1aaaaa
b1111 aaaag
b1110 aaaai
b101 aaaak

#21500
0aaaaa

#22000
1aaaaa
b1 aaaae
b0 aaaag
1aaaah
b1111 aaaai
b110 aaaak

#22500
0aaaaa

#23000
1aaaaa
b1 aaaag
0aaaah
b10000 aaaai
b111 aaaak

#23500
0aaaaa

#24000
1aaaaa
b10 aaaag
b10001 aaaai
b1000 aaaak

#24500
0aaaaa

#25000
1aaaaa
b11 aaaag
b10010 aaaai
b1001 aaaak

#25500
0aaaaa

#26000
1aaaaa
b100 aaaag
b10011 aaaai
b1010 aaaak

#26500
0aaaaa

#27000
1aaaaa
b101 aaaag
b10100 aaaai
b1011 aaaak

#27500
0aaaaa

#28000
1aaaaa
b110 aaaag
b10101 aaaai
b1100 aaaak

#28500
0aaaaa

#29000
1aaaaa
b111 aaaag
b10110 aaaai
b1101 aaaak

#29500
0aaaaa

#30000
1aaaaa
b1000 aaaag
b10111 aaaai
b1110 aaaak

#30500
0aaaaa

#31000
1aaaaa
b1001 aaaag
b11000 aaaai
b1111 aaaak

#31500
0aaaaa

#32000
1aaaaa
b1010 aaaag
b11001 aaaai
b0 aaaak
1aaaal

#32500
0aaaaa

#33000
1aaaaa
b1011 aaaag
b11010 aaaai
b1 aaaak
0aaaal

#33500
0aaaaa

#34000
1aaaaa
b1100 aaaag
b11011 aaaai
b10 aaaak

#34500
0aaaaa

#35000
1aaaaa
b1101 aaaag
b11100 aaaai
b11 aaaak

#35500
0aaaaa

#36000
1aaaaa
b1110 aaaag
b11101 aaaai
b100 aaaak

#36500
0aaaaa

#37000
1aaaaa
b1111 aaaag
b11110 aaaai
b101 aaaak

#37500
0aaaaa

#38000
1aaaaa
b10 aaaae
b0 aaaag
1aaaah
b11111 aaaai
b110 aaaak

#38500
0aaaaa

#39000
1aaaaa
b1 aaaag
0aaaah
b100000 aaaai
b111 aaaak

#39500
0aaaaa

#40000
1aaaaa
b10 aaaag
b100001 aaaai
b1000 aaaak

#40500
0aaaaa

#41000
1aaaaa
b11 aaaag
b100010 aaaai
b1001 aaaak

#41500
0aaaaa

#42000
1aaaaa
b100 aaaag
b100011 aaaai
b1010 aaaak

#42500
0aaaaa

#43000
1aaaaa
b101 aaaag
b100100 aaaai
b1011 aaaak

#43500
0aaaaa

#44000
1aaaaa
b110 aaaag
b100101 aaaai
b1100 aaaak

#44500
0aaaaa

#45000
1aaaaa
b111 aaaag
b100110 aaaai
b1101 aaaak

#45500
0aaaaa

#46000
1aaaaa
b1000 aaaag
b100111 aaaai
b1110 aaaak

#46500
0aaaaa

#47000
1aaaaa
b1001 aaaag
b101000 aaaai
b1111 aaaak

#47500
0aaaaa

#48000
1aaaaa
b1010 aaaag
b101001 aaaai
b0 aaaak
1aaaal

#48500
0aaaaa

#49000
1aaaaa
b1011 aaaag
b101010 aaaai
b1 aaaak
0aaaal

#49500
0aaaaa

#50000
1aaaaa
b1100 aaaag
b101011 aaaai
b10 aaaak

#50500
0aaaaa

#51000
1aaaaa
b1101 aaaag
b101100 aaaai
b11 aaaak

#51500
0aaaaa

#52000
1aaaaa
b1110 aaaag
b101101 aaaai
b100 aaaak

#52500
0aaaaa

#53000
1aaaaa
b1111 aaaag
b101110 aaaai
b101 aaaak

#53500
0aaaaa

#54000
1aaaaa
b11 aaaae
b0 aaaag
1aaaah
b101111 aaaai
b110 aaaak

#54500
0aaaaa

#55000
1aaaaa
b1 aaaag
0aaaah
b110000 aaaai
b111 aaaak

#55500
0aaaaa

#56000
1aaaaa
b10 aaaag
b110001 aaaai
b1000 aaaak

#56500
0aaaaa

#57000
1aaaaa
b11 aaaag
b110010 aaaai
b1001 aaaak

#57500
0aaaaa

#58000
1aaaaa
b100 aaaag
b110011 aaaai
b1010 aaaak

#58500
0aaaaa

#59000
1aaaaa
b101 aaaag
b110100 aaaai
b1011 aaaak

#59500
0aaaaa

#60000
1aaaaa
b110 aaaag
b110101 aaaai
b1100 aaaak

#60500
0aaaaa

#61000
1aaaaa
b111 aaaag
b110110 aaaai
b1101 aaaak

#61500
0aaaaa

#62000
1aaaaa
b1000 aaaag
b110111 aaaai
b1110 aaaak

#62500
0aaaaa

#63000
1aaaaa
b1001 aaaag
b111000 aaaai
b1111 aaaak

#63500
0aaaaa

#64000
1aaaaa
b1010 aaaag
b111001 aaaai
b0 aaaak
1aaaal

#64500
0aaaaa

#65000
1aaaaa
b1011 aaaag
b111010 aaaai
b1 aaaak
0aaaal

#65500
0aaaaa

#66000
1aaaaa
b1100 aaaag
b111011 aaaai
b10 aaaak

#66500
0aaaaa

#67000
1aaaaa
b1101 aaaag
b111100 aaaai
b11 aaaak

#67500
0aaaaa

#68000
1aaaaa
b1110 aaaag
b111101 aaaai
b100 aaaak

#68500
0aaaaa

#69000
1aaaaa
b1111 aaaag
b111110 aaaai
b101 aaaak

#69500
0aaaaa

#70000
1aaaaa
b100 aaaae
b0 aaaag
1aaaah
b111111 aaaai
b110 aaaak

#70500
0aaaaa

#71000
1aaaaa
b1 aaaag
0aaaah
b1000000 aaaai
b111 aaaak

#71500
0aaaaa

#72000
1aaaaa
b10 aaaag
b1000001 aaaai
b1000 aaaak

#72500
0aaaaa

#73000
1aaaaa
b11 aaaag
b1000010 aaaai
b1001 aaaak

#73500
0aaaaa

#74000
1aaaaa
b100 aaaag
b1000011 aaaai
b1010 aaaak

#74500
0aaaaa

#75000
1aaaaa
b101 aaaag
b1000100 aaaai
b1011 aaaak

#75500
0aaaaa

#76000
1aaaaa
b110 aaaag
b1000101 aaaai
b1100 aaaak

#76500
0aaaaa

#77000
1aaaaa
b111 aaaag
b1000110 aaaai
b1101 aaaak

#77500
0aaaaa

#78000
1aaaaa
b1000 aaaag
b1000111 aaaai
b1110 aaaak

#78500
0aaaaa

#79000
1aaaaa
b1001 aaaag
b1001000 aaaai
b1111 aaaak

#79500
0aaaaa

#80000
1aaaaa
b1010 aaaag
b1001001 aaaai
b0 aaaak
1aaaal

#80500
0aaaaa

#81000
1aaaaa
b1011 aaaag
b1001010 aaaai
b1 aaaak
0aaaal

#81500
0aaaaa

#82000
1aaaaa
b1100 aaaag
b1001011 aaaai
b10 aaaak

#82500
0aaaaa

#83000
1aaaaa
b1101 aaaag
b1001100 aaaai
b11 aaaak

#83500
0aaaaa

#84000
1aaaaa
b1110 aaaag
b1001101 aaaai
b100 aaaak

#84500
0aaaaa

#85000
1aaaaa
b1111 aaaag
b1001110 aaaai
b101 aaaak

#85500
0aaaaa

#86000
1aaaaa
b101 aaaae
b0 aaaag
1aaaah
b1001111 aaaai
b110 aaaak

#86500
0aaaaa

#87000
1aaaaa
b1 aaaag
0aaaah
b1010000 aaaai
b111 aaaak

#87500
0aaaaa

#88000
1aaaaa
b10 aaaag
b1010001 aaaai
b1000 aaaak

#88500
0aaaaa

#89000
1aaaaa
b11 aaaag
b1010010 aaaai
b1001 aaaak

#89500
0aaaaa

#90000
1aaaaa
b100 aaaag
b1010011 aaaai
b1010 aaaak

#90500
0aaaaa

#91000
1aaaaa
b101 aaaag
b1010100 aaaai
b1011 aaaak

#91500
0aaaaa

#92000
1aaaaa
b110 aaaag
b1010101 aaaai
b1100 aaaak

#92500
0aaaaa

#93000
1aaaaa
b111 aaaag
b1010110 aaaai
b1101 aaaak

#93500
0aaaaa

#94000
1aaaaa
b1000 aaaag
b1010111 aaaai
b1110 aaaak

#94500
0aaaaa

#95000
1aaaaa
b1001 aaaag
b1011000 aaaai
b1111 aaaak

#95500
0aaaaa

#96000
1aaaaa
b1010 aaaag
b1011001 aaaai
b0 aaaak
1aaaal

#96500
0aaaaa

#97000
1aaaaa
b1011 aaaag
b1011010 aaaai
b1 aaaak
0aaaal

#97500
0aaaaa

#98000
1aaaaa
b1100 aaaag
b1011011 aaaai
b10 aaaak

#98500
0aaaaa

#99000
1aaaaa
b1101 aaaag
b1011100 aaaai
b11 aaaak

#99500
0aaaaa

#100000
1aaaaa
b1110 aaaag
b1011101 aaaai
b100 aaaak

#100500
0aaaaa

#101000
1aaaaa
b1111 aaaag
b1011110 aaaai
b101 aaaak

#101500
0aaaaa

#102000
1aaaaa
b110 aaaae
b0 aaaag
1aaaah
b1011111 aaaai
b110 aaaak

#102500
0aaaaa

#103000
1aaaaa
b1 aaaag
0aaaah
b1100000 aaaai
b111 aaaak

#103500
0aaaaa

#104000
1aaaaa
b10 aaaag
b1100001 aaaai
b1000 aaaak

#104500
0aaaaa

#105000
1aaaaa
b11 aaaag
b1100010 aaaai
b1001 aaaak

#105500
0aaaaa

#106000
1aaaaa
b100 aaaag
b1100011 aaaai
b1010 aaaak

#106500
0aaaaa

#107000
1aaaaa
b101 aaaag
b1100100 aaaai
b1011 aaaak

#107500
0aaaaa

#108000
1aaaaa
b110 aaaag
b1100101 aaaai
b1100 aaaak

#108500
0aaaaa

#109000
1aaaaa
b111 aaaag
b1100110 aaaai
b1101 aaaak

#109500
0aaaaa

#110000
1aaaaa
b1000 aaaag
b1100111 aaaai
b1110 aaaak

#110500
0aaaaa

#111000
1aaaaa
b1001 aaaag
b1101000 aaaai
b1111 aaaak

#111500
0aaaaa

#112000
1aaaaa
b1010 aaaag
b1101001 aaaai
b0 aaaak
1aaaal

#112500
0aaaaa

#113000
1aaaaa
b1011 aaaag
b1101010 aaaai
b1 aaaak
0aaaal

#113500
0aaaaa

#114000
1aaaaa
b1100 aaaag
b1101011 aaaai
b10 aaaak

#114500
0aaaaa

#115000
1aaaaa
b1101 aaaag
b1101100 aaaai
b11 aaaak

#115500
0aaaaa

#116000
1aaaaa
b1110 aaaag
b1101101 aaaai
b100 aaaak

#116500
0aaaaa

#117000
1aaaaa
b1111 aaaag
b1101110 aaaai
b101 aaaak

#117500
0aaaaa

#118000
1aaaaa
b111 aaaae
b0 aaaag
1aaaah
b1101111 aaaai
b110 aaaak

#118500
0aaaaa

#119000
1aaaaa
b1 aaaag
0aaaah
b1110000 aaaai
b111 aaaak

#119500
0aaaaa

#120000
1aaaaa
b10 aaaag
b1110001 aaaai
b1000 aaaak

#120500
0aaaaa

#121000
1aaaaa
b11 aaaag
b1110010 aaaai
b1001 aaaak

#121500
0aaaaa

#122000
1aaaaa
b100 aaaag
b1110011 aaaai
b1010 aaaak

#122500
0aaaaa

#123000
1aaaaa
b101 aaaag
b1110100 aaaai
b1011 aaaak

#123500
0aaaaa

#124000
1aaaaa
b110 aaaag
b1110101 aaaai
b1100 aaaak

#124500
0aaaaa

#125000
1aaaaa
b111 aaaag
b1110110 aaaai
b1101 aaaak

#125500
0aaaaa

#126000
1aaaaa
b1000 aaaag
b1110111 aaaai
b1110 aaaak

#126500
0aaaaa

#127000
1aaaaa
b1001 aaaag
b1111000 aaaai
b1111 aaaak

#127500
0aaaaa

#128000
1aaaaa
b1010 aaaag
b1111001 aaaai
b0 aaaak
1aaaal

#128500
0aaaaa

#129000
1aaaaa
b1011 aaaag
b1111010 aaaai
b1 aaaak
0aaaal

#129500
0aaaaa

#130000
1aaaaa
b1100 aaaag
b1111011 aaaai
b10 aaaak

#130500
0aaaaa

#131000
1aaaaa
b1101 aaaag
b1111100 aaaai
b11 aaaak

#131500
0aaaaa

#132000
1aaaaa
b1110 aaaag
b1111101 aaaai
b100 aaaak

#132500
0aaaaa

#133000
1aaaaa
b1111 aaaag
b1111110 aaaai
b101 aaaak

#133500
0aaaaa

#134000
1aaaaa
b1000 aaaae
b0 aaaag
1aaaah
b1111111 aaaai
b110 aaaak

#134500
0aaaaa

#135000
1aaaaa
b1 aaaag
0aaaah
b10000000 aaaai
b111 aaaak

#135500
0aaaaa

#136000
1aaaaa
b10 aaaag
b10000001 aaaai
b1000 aaaak

#136500
0aaaaa

#137000
1aaaaa
b11 aaaag
b10000010 aaaai
b1001 aaaak

#137500
0aaaaa

#138000
1aaaaa
b100 aaaag
b10000011 aaaai
b1010 aaaak

#138500
0aaaaa

#139000
1aaaaa
b101 aaaag
b10000100 aaaai
b1011 aaaak

#139500
0aaaaa

#140000
1aaaaa
b110 aaaag
b10000101 aaaai
b1100 aaaak

#140500
0aaaaa

#141000
1aaaaa
b111 aaaag
b10000110 aaaai
b1101 aaaak

#141500
0aaaaa

#142000
1aaaaa
b1000 aaaag
b10000111 aaaai
b1110 aaaak

#142500
0aaaaa

#143000
1aaaaa
b1001 aaaag
b10001000 aaaai
b1111 aaaak

#143500
0aaaaa

#144000
1aaaaa
b1010 aaaag
b10001001 aaaai
b0 aaaak
1aaaal

#144500
0aaaaa

#145000
1aaaaa
b1011 aaaag
b10001010 aaaai
b1 aaaak
0aaaal

#145500
0aaaaa

#146000
1aaaaa
b1100 aaaag
b10001011 aaaai
b10 aaaak

#146500
0aaaaa

#147000
1aaaaa
b1101 aaaag
b10001100 aaaai
b11 aaaak

#147500
0aaaaa

#148000
1aaaaa
b1110 aaaag
b10001101 aaaai
b100 aaaak

#148500
0aaaaa

#149000
1aaaaa
b1111 aaaag
b10001110 aaaai
b101 aaaak

#149500
0aaaaa

#150000
1aaaaa
b1001 aaaae
b0 aaaag
1aaaah
b10001111 aaaai
b110 aaaak

#150500
0aaaaa

#151000
1aaaaa
b1 aaaag
0aaaah
b10010000 aaaai
b111 aaaak

#151500
0aaaaa

#152000
1aaaaa
b10 aaaag
b10010001 aaaai
b1000 aaaak

#152500
0aaaaa

#153000
1aaaaa
b11 aaaag
b10010010 aaaai
b1001 aaaak

#153500
0aaaaa

#154000
1aaaaa
b100 aaaag
b10010011 aaaai
b1010 aaaak

#154500
0aaaaa

#155000
1aaaaa
b101 aaaag
b10010100 aaaai
b1011 aaaak

#155500
0aaaaa

#156000
1aaaaa
b110 aaaag
b10010101 aaaai
b1100 aaaak

#156500
0aaaaa

#157000
1aaaaa
b111 aaaag
b10010110 aaaai
b1101 aaaak

#157500
0aaaaa

#158000
1aaaaa
b1000 aaaag
b10010111 aaaai
b1110 aaaak

#158500
0aaaaa

#159000
1aaaaa
b1001 aaaag
b10011000 aaaai
b1111 aaaak

#159500
0aaaaa

#160000
1aaaaa
b1010 aaaag
b10011001 aaaai
b0 aaaak
1aaaal

#160500
0aaaaa

#161000
1aaaaa
b1011 aaaag
b10011010 aaaai
b1 aaaak
0aaaal

#161500
0aaaaa

#162000
1aaaaa
b1100 aaaag
b10011011 aaaai
b10 aaaak

#162500
0aaaaa

#163000
1aaaaa
b1101 aaaag
b10011100 aaaai
b11 aaaak

#163500
0aaaaa

#164000
1aaaaa
b1110 aaaag
b10011101 aaaai
b100 aaaak

#164500
0aaaaa

#165000
1aaaaa
b1111 aaaag
b10011110 aaaai
b101 aaaak

#165500
0aaaaa

#166000
1aaaaa
b1010 aaaae
b0 aaaag
1aaaah
b10011111 aaaai
b110 aaaak

#166500
0aaaaa

#167000
1aaaaa
b1 aaaag
0aaaah
b10100000 aaaai
b111 aaaak

#167500
0aaaaa

#168000
1aaaaa
b10 aaaag
b10100001 aaaai
b1000 aaaak

#168500
0aaaaa

#169000
1aaaaa
b11 aaaag
b10100010 aaaai
b1001 aaaak

#169500
0aaaaa

#170000
1aaaaa
b100 aaaag
b10100011 aaaai
b1010 aaaak

#170500
0aaaaa

#171000
1aaaaa
b101 aaaag
b10100100 aaaai
b1011 aaaak

#171500
0aaaaa

#172000
1aaaaa
b110 aaaag
b10100101 aaaai
b1100 aaaak

#172500
0aaaaa

#173000
1aaaaa
b111 aaaag
b10100110 aaaai
b1101 aaaak

#173500
0aaaaa

#174000
1aaaaa
b1000 aaaag
b10100111 aaaai
b1110 aaaak

#174500
0aaaaa

#175000
1aaaaa
b1001 aaaag
b10101000 aaaai
b1111 aaaak

#175500
0aaaaa

#176000
1aaaaa
b1010 aaaag
b10101001 aaaai
b0 aaaak
1aaaal

#176500
0aaaaa

#177000
1aaaaa
b1011 aaaag
b10101010 aaaai
b1 aaaak
0aaaal

#177500
0aaaaa

#178000
1aaaaa
b1100 aaaag
b10101011 aaaai
b10 aaaak

#178500
0aaaaa

#179000
1aaaaa
b1101 aaaag
b10101100 aaaai
b11 aaaak

#179500
0aaaaa

#180000
1aaaaa
b1110 aaaag
b10101101 aaaai
b100 aaaak

#180500
0aaaaa

#181000
1aaaaa
b1111 aaaag
b10101110 aaaai
b101 aaaak

#181500
0aaaaa

#182000
1aaaaa
b1011 aaaae
b0 aaaag
1aaaah
b10101111 aaaai
b110 aaaak

#182500
0aaaaa

#183000
1aaaaa
b1 aaaag
0aaaah
b10110000 aaaai
b111 aaaak

#183500
0aaaaa

#184000
1aaaaa
b10 aaaag
b10110001 aaaai
b1000 aaaak

#184500
0aaaaa

#185000
1aaaaa
b11 aaaag
b10110010 aaaai
b1001 aaaak

#185500
0aaaaa

#186000
1aaaaa
b100 aaaag
b10110011 aaaai
b1010 aaaak

#186500
0aaaaa

#187000
1aaaaa
b101 aaaag
b10110100 aaaai
b1011 aaaak

#187500
0aaaaa

#188000
1aaaaa
b110 aaaag
b10110101 aaaai
b1100 aaaak

#188500
0aaaaa

#189000
1aaaaa
b111 aaaag
b10110110 aaaai
b1101 aaaak

#189500
0aaaaa

#190000
1aaaaa
b1000 aaaag
b10110111 aaaai
b1110 aaaak

#190500
0aaaaa

#191000
1aaaaa
b1001 aaaag
b10111000 aaaai
b1111 aaaak

#191500
0aaaaa

#192000
1aaaaa
b1010 aaaag
b10111001 aaaai
b0 aaaak
1aaaal

#192500
0aaaaa

#193000
1aaaaa
b1011 aaaag
b10111010 aaaai
b1 aaaak
0aaaal

#193500
0aaaaa

#194000
1aaaaa
b1100 aaaag
b10111011 aaaai
b10 aaaak

#194500
0aaaaa

#195000
1aaaaa
b1101 aaaag
b10111100 aaaai
b11 aaaak

#195500
0aaaaa

#196000
1aaaaa
b1110 aaaag
b10111101 aaaai
b100 aaaak

#196500
0aaaaa

#197000
1aaaaa
b1111 aaaag
b10111110 aaaai
b101 aaaak

#197500
0aaaaa

#198000
1aaaaa
b1100 aaaae
b0 aaaag
1aaaah
b10111111 aaaai
b110 aaaak

#198500
0aaaaa

#199000
1aaaaa
b1 aaaag
0aaaah
b11000000 aaaai
b111 aaaak

#199500
0aaaaa

#200000
1aaaaa
b10 aaaag
b11000001 aaaai
b1000 aaaak

#200500
0aaaaa

#201000
1aaaaa
b11 aaaag
b11000010 aaaai
b1001 aaaak

#201500
0aaaaa

#202000
1aaaaa
b100 aaaag
b11000011 aaaai
b1010 aaaak

#202500
0aaaaa

#203000
1aaaaa
b101 aaaag
b11000100 aaaai
b1011 aaaak

#203500
0aaaaa

#204000
1aaaaa
b110 aaaag
b11000101 aaaai
b1100 aaaak

#204500
0aaaaa

#205000
1aaaaa
b111 aaaag
b11000110 aaaai
b1101 aaaak

#205500
0aaaaa

#206000
1aaaaa
b1000 aaaag
b11000111 aaaai
b1110 aaaak

#206500
0aaaaa

#207000
1aaaaa
b1001 aaaag
b11001000 aaaai
b1111 aaaak

#207500
0aaaaa

#208000
1aaaaa
b1010 aaaag
b11001001 aaaai
b0 aaaak
1aaaal

#208500
0aaaaa

#209000
1aaaaa
b1011 aaaag
b11001010 aaaai
b1 aaaak
0aaaal

#209500
0aaaaa

#210000
1aaaaa
b1100 aaaag
b11001011 aaaai
b10 aaaak

#210500
0aaaaa

#211000
1aaaaa
b1101 aaaag
b11001100 aaaai
b11 aaaak

#211500
0aaaaa

#212000
1aaaaa
b1110 aaaag
b11001101 aaaai
b100 aaaak

#212500
0aaaaa

#213000
1aaaaa
b1111 aaaag
b11001110 aaaai
b101 aaaak

#213500
0aaaaa

#214000
1aaaaa
b1101 aaaae
b0 aaaag
1aaaah
b11001111 aaaai
b110 aaaak

#214500
0aaaaa

#215000
1aaaaa
b1 aaaag
0aaaah
b11010000 aaaai
b111 aaaak

#215500
0aaaaa

#216000
1aaaaa
b10 aaaag
b11010001 aaaai
b1000 aaaak

#216500
0aaaaa

#217000
1aaaaa
b11 aaaag
b11010010 aaaai
b1001 aaaak

#217500
0aaaaa

#218000
1aaaaa
b100 aaaag
b11010011 aaaai
b1010 aaaak

#218500
0aaaaa

#219000
1aaaaa
b101 aaaag
b11010100 aaaai
b1011 aaaak

#219500
0aaaaa

#220000
1aaaaa
b110 aaaag
b11010101 aaaai
b1100 aaaak

#220500
0aaaaa

#221000
1aaaaa
b111 aaaag
b11010110 aaaai
b1101 aaaak

#221500
0aaaaa

#222000
1aaaaa
b1000 aaaag
b11010111 aaaai
b1110 aaaak

#222500
0aaaaa

#223000
1aaaaa
b1001 aaaag
b11011000 aaaai
b1111 aaaak

#223500
0aaaaa

#224000
1aaaaa
b1010 aaaag
b11011001 aaaai
b0 aaaak
1aaaal

#224500
0aaaaa

#225000
1aaaaa
b1011 aaaag
b11011010 aaaai
b1 aaaak
0aaaal

#225500
0aaaaa

#226000
1aaaaa
b1100 aaaag
b11011011 aaaai
b10 aaaak

#226500
0aaaaa

#227000
1aaaaa
b1101 aaaag
b11011100 aaaai
b11 aaaak

#227500
0aaaaa

#228000
1aaaaa
b1110 aaaag
b11011101 aaaai
b100 aaaak

#228500
0aaaaa

#229000
1aaaaa
b1111 aaaag
b11011110 aaaai
b101 aaaak

#229500
0aaaaa

#230000
1aaaaa
b1110 aaaae
b0 aaaag
1aaaah
b11011111 aaaai
b110 aaaak

#230500
0aaaaa

#231000
1aaaaa
b1 aaaag
0aaaah
b11100000 aaaai
b111 aaaak

#231500
0aaaaa

#232000
1aaaaa
b10 aaaag
b11100001 aaaai
b1000 aaaak

#232500
0aaaaa

#233000
1aaaaa
b11 aaaag
b11100010 aaaai
b1001 aaaak

#233500
0aaaaa

#234000
1aaaaa
b100 aaaag
b11100011 aaaai
b1010 aaaak

#234500
0aaaaa

#235000
1aaaaa
b101 aaaag
b11100100 aaaai
b1011 aaaak

#235500
0aaaaa

#236000
1aaaaa
b110 aaaag
b11100101 aaaai
b1100 aaaak

#236500
0aaaaa

#237000
1aaaaa
b111 aaaag
b11100110 aaaai
b1101 aaaak

#237500
0aaaaa

#238000
1aaaaa
b1000 aaaag
b11100111 aaaai
b1110 aaaak

#238500
0aaaaa

#239000
1aaaaa
b1001 aaaag
b11101000 aaaai
b1111 aaaak

#239500
0aaaaa

#240000
1aaaaa
b1010 aaaag
b11101001 aaaai
b0 aaaak
1aaaal

#240500
0aaaaa

#241000
1aaaaa
b1011 aaaag
b11101010 aaaai
b1 aaaak
0aaaal

#241500
0aaaaa

#242000
1aaaaa
b1100 aaaag
b11101011 aaaai
b10 aaaak

#242500
0aaaaa

#243000
1aaaaa
b1101 aaaag
b11101100 aaaai
b11 aaaak

#243500
0aaaaa

#244000
1aaaaa
b1110 aaaag
b11101101 aaaai
b100 aaaak

#244500
0aaaaa

#245000
1aaaaa
b1111 aaaag
b11101110 aaaai
b101 aaaak

#245500
0aaaaa

#246000
1aaaaa
b1111 aaaae
b0 aaaag
1aaaah
b11101111 aaaai
b110 aaaak

#246500
0aaaaa

#247000
1aaaaa
b1 aaaag
0aaaah
b11110000 aaaai
b111 aaaak

#247500
0aaaaa

#248000
1aaaaa
b10 aaaag
b11110001 aaaai
b1000 aaaak

#248500
0aaaaa

#249000
1aaaaa
b11 aaaag
b11110010 aaaai
b1001 aaaak

#249500
0aaaaa

#250000
1aaaaa
b100 aaaag
b11110011 aaaai
b1010 aaaak

#250500
0aaaaa

#251000
1aaaaa
b101 aaaag
b11110100 aaaai
b1011 aaaak

#251500
0aaaaa

#252000
1aaaaa
b110 aaaag
b11110101 aaaai
b1100 aaaak

#252500
0aaaaa

#253000
1aaaaa
b111 aaaag
b11110110 aaaai
b1101 aaaak

#253500
0aaaaa

#254000
1aaaaa
b1000 aaaag
b11110111 aaaai
b1110 aaaak

#254500
0aaaaa

#255000
1aaaaa
b1001 aaaag
b11111000 aaaai
b1111 aaaak

#255500
0aaaaa

#256000
1aaaaa
b1010 aaaag
b11111001 aaaai
b0 aaaak
1aaaal

#256500
0aaaaa

#257000
1aaaaa
b1011 aaaag
b11111010 aaaai
b1 aaaak
0aaaal

#257500
0aaaaa

#258000
1aaaaa
b1100 aaaag
b11111011 aaaai
b10 aaaak

#258500
0aaaaa

#259000
1aaaaa
b1101 aaaag
b11111100 aaaai
b11 aaaak

#259500
0aaaaa

#260000
1aaaaa
b1110 aaaag
b11111101 aaaai
b100 aaaak

#260500
0aaaaa

#261000
1aaaaa
b1111 aaaag
b11111110 aaaai
b101 aaaak

#261500
0aaaaa

#262000
1aaaaa
b0 aaaae
1aaaaf
b0 aaaag
1aaaah
b11111111 aaaai
1aaaaj
b110 aaaak

#262500
0aaaaa

#263000
1aaaaa
b1 aaaag
0aaaah
b0 aaaai
b111 aaaak

#263500
0aaaaa

#264000
1aaaaa
b10 aaaag
b1 aaaai
b1000 aaaak

#264500
0aaaaa

#265000
1aaaaa
b11 aaaag
b10 aaaai
b1001 aaaak

#265500
0aaaaa

#266000
1aaaaa
b100 aaaag
b11 aaaai
b1010 aaaak

#266500
0aaaaa

#267000
1aaaaa
b101 aaaag
b100 aaaai
b1011 aaaak

#267500
0aaaaa

#268000
1aaaaa
b110 aaaag
b101 aaaai
b1100 aaaak

#268500
0aaaaa

#269000
1aaaaa
b111 aaaag
b110 aaaai
b1101 aaaak

#269500
0aaaaa

#270000
1aaaaa
b1000 aaaag
b111 aaaai
b1110 aaaak

#270500
0aaaaa

#271000
1aaaaa
b1001 aaaag
b1000 aaaai
b1111 aaaak

#271500
0aaaaa

#272000
1aaaaa
b1010 aaaag
b1001 aaaai
b0 aaaak
1aaaal

#272500
0aaaaa

#273000
1aaaaa
b1011 aaaag
b1010 aaaai
b1 aaaak
0aaaal

#273500
0aaaaa

#274000
1aaaaa
b1100 aaaag
b1011 aaaai
b10 aaaak

#274500
0aaaaa

#275000
1aaaaa
b1101 aaaag
b1100 aaaai
b11 aaaak

#275500
0aaaaa

#276000
1aaaaa
b1110 aaaag
b1101 aaaai
b100 aaaak

#276500
0aaaaa

#277000
1aaaaa
b1111 aaaag
b1110 aaaai
b101 aaaak

#277500
0aaaaa

#278000
1aaaaa
b1 aaaae
0aaaaf
b0 aaaag
1aaaah
b1111 aaaai
0aaaaj
b110 aaaak

#278500
0aaaaa

#279000
1aaaaa
b1 aaaag
0aaaah
b10000 aaaai
b111 aaaak

#279500
0aaaaa

#280000
1aaaaa
b10 aaaag
b10001 aaaai
b1000 aaaak

#280500
0aaaaa

#281000
1aaaaa
b11 aaaag
b10010 aaaai
b1001 aaaak

#281500
0aaaaa

#282000
1aaaaa
b100 aaaag
b10011 aaaai
b1010 aaaak

#282500
0aaaaa

#283000
1aaaaa
b101 aaaag
b10100 aaaai
b1011 aaaak

#283500
0aaaaa

#284000
1aaaaa
b110 aaaag
b10101 aaaai
b1100 aaaak

#284500
0aaaaa

#285000
1aaaaa
b111 aaaag
b10110 aaaai
b1101 aaaak

#285500
0aaaaa

#286000
1aaaaa
b1000 aaaag
b10111 aaaai
b1110 aaaak

#286500
0aaaaa

