build-Sysc_test-Desktop-Debug/out.vcd
$date
     Feb 20, 2020       22:28:37
$end

$version
 SystemC 2.3.3-Accellera --- Feb 20 2020 22:18:19
$end

$timescale
     1 ps
$end

$scope module SystemC $end
$var wire    1  aaaaa  MasterClock       $end
$var wire    1  aaaab  SlaveClock       $end
$var wire    1  aaaac  Reset       $end
$var wire    1  aaaad  TriggerLane0       $end
$var wire    1  aaaae  Run0       $end
$var wire   12  aaaaf  Bitcount0 [11:0]  $end
$var wire    1  aaaag  Working0       $end
$var wire    1  aaaah  TriggerLane1       $end
$var wire    1  aaaai  Run1       $end
$var wire   12  aaaaj  Bitcount1 [11:0]  $end
$var wire    1  aaaak  Working1       $end
$var wire    1  aaaal  TriggerLane2       $end
$var wire    1  aaaam  Run2       $end
$var wire   12  aaaan  Bitcount2 [11:0]  $end
$var wire    1  aaaao  Working2       $end
$var wire    1  aaaap  TriggerLane3       $end
$var wire    1  aaaaq  Run3       $end
$var wire   12  aaaar  Bitcount3 [11:0]  $end
$var wire    1  aaaas  Working3       $end
$var wire    1  aaaat  TriggerLane4       $end
$var wire    1  aaaau  Run4       $end
$var wire   12  aaaav  Bitcount4 [11:0]  $end
$var wire    1  aaaaw  Working4       $end
$var wire    1  aaaax  TriggerLane5       $end
$var wire    1  aaaay  Run5       $end
$var wire   12  aaaaz  Bitcount5 [11:0]  $end
$var wire    1  aaaba  Working5       $end
$var wire    1  aaabb  TriggerLane6       $end
$var wire    1  aaabc  Run6       $end
$var wire   12  aaabd  Bitcount6 [11:0]  $end
$var wire    1  aaabe  Working6       $end
$var wire    1  aaabf  TriggerLane7       $end
$var wire    1  aaabg  Run7       $end
$var wire   12  aaabh  Bitcount7 [11:0]  $end
$var wire    1  aaabi  Working7       $end
$var wire    1  aaabj  TriggerLane8       $end
$var wire    1  aaabk  Run8       $end
$var wire   12  aaabl  Bitcount8 [11:0]  $end
$var wire    1  aaabm  Working8       $end
$var wire    1  aaabn  TriggerLane9       $end
$var wire    1  aaabo  Run9       $end
$var wire   12  aaabp  Bitcount9 [11:0]  $end
$var wire    1  aaabq  Working9       $end
$var wire    1  aaabr  TriggerLane10       $end
$var wire    1  aaabs  Run10       $end
$var wire   12  aaabt  Bitcount10 [11:0]  $end
$var wire    1  aaabu  Working10       $end
$var wire    1  aaabv  TriggerLane11       $end
$var wire    1  aaabw  Run11       $end
$var wire   12  aaabx  Bitcount11 [11:0]  $end
$var wire    1  aaaby  Working11       $end
$var wire    1  aaabz  TriggerLane12       $end
$var wire    1  aaaca  Run12       $end
$var wire   12  aaacb  Bitcount12 [11:0]  $end
$var wire    1  aaacc  Working12       $end
$var wire    1  aaacd  TriggerLane13       $end
$var wire    1  aaace  Run13       $end
$var wire   12  aaacf  Bitcount13 [11:0]  $end
$var wire    1  aaacg  Working13       $end
$var wire    1  aaach  TriggerLane14       $end
$var wire    1  aaaci  Run14       $end
$var wire   12  aaacj  Bitcount14 [11:0]  $end
$var wire    1  aaack  Working14       $end
$var wire    1  aaacl  TriggerLane15       $end
$var wire    1  aaacm  Run15       $end
$var wire   12  aaacn  Bitcount15 [11:0]  $end
$var wire    1  aaaco  Working15       $end
$var wire    1  aaacp  TriggerLane16       $end
$upscope $end
$enddefinitions  $end

$comment
All initial values are dumped below at time 0 sec = 0 timescale units.
$end

$dumpvars
1aaaaa
1aaaab
0aaaac
1aaaad
1aaaae
b0 aaaaf
0aaaag
0aaaah
0aaaai
b0 aaaaj
0aaaak
0aaaal
0aaaam
b0 aaaan
0aaaao
0aaaap
0aaaaq
b0 aaaar
0aaaas
0aaaat
0aaaau
b0 aaaav
0aaaaw
0aaaax
0aaaay
b0 aaaaz
0aaaba
0aaabb
0aaabc
b0 aaabd
0aaabe
0aaabf
0aaabg
b0 aaabh
0aaabi
0aaabj
0aaabk
b0 aaabl
0aaabm
0aaabn
0aaabo
b0 aaabp
0aaabq
0aaabr
0aaabs
b0 aaabt
0aaabu
0aaabv
0aaabw
b0 aaabx
0aaaby
0aaabz
0aaaca
b0 aaacb
0aaacc
0aaacd
0aaace
b0 aaacf
0aaacg
0aaach
0aaaci
b0 aaacj
0aaack
0aaacl
0aaacm
b0 aaacn
0aaaco
0aaacp
$end

#25000
1aaaac
0aaaad
0aaaae

#50000
0aaaac

#190000
0aaaab

#380000
1aaaab

#570000
0aaaab

#760000
1aaaab

#780000
0aaaaa

#950000
0aaaab

#1140000
1aaaab

#1330000
0aaaab

#1520000
1aaaab

#1560000
1aaaaa
1aaaad
1aaaae

#1710000
0aaaab

#1840000
b101111100 aaaaf
1aaaag

#1900000
1aaaab

#1940000
0aaaag
1aaaah
1aaaai

#2090000
0aaaab

#2220000
b101111100 aaaaj
1aaaak

#2280000
1aaaab

#2320000
0aaaak
1aaaal
1aaaam

#2340000
0aaaaa

#2470000
0aaaab

#2600000
b101111100 aaaan
1aaaao

#2660000
1aaaab

#2700000
0aaaao
1aaaap
1aaaaq

#2850000
0aaaab

#2980000
b101111100 aaaar
1aaaas

#3040000
1aaaab

#3080000
0aaaas
1aaaat
1aaaau

#3120000
1aaaaa
0aaaad

#3230000
0aaaab

#3360000
b101111100 aaaav
1aaaaw

#3400000
b1011111000 aaaaf

#3420000
1aaaab

#3460000
0aaaaw
1aaaax
1aaaay

#3500000
0aaaah

#3610000
0aaaab

#3740000
b101111100 aaaaz
1aaaba

#3780000
b1011111000 aaaaj

#3800000
1aaaab

#3840000
0aaaba
1aaabb
1aaabc

#3880000
0aaaal

#3900000
0aaaaa

#3990000
0aaaab

#4120000
b101111100 aaabd
1aaabe

#4160000
b1011111000 aaaan

#4180000
1aaaab

#4220000
0aaabe
1aaabf
1aaabg

#4260000
0aaaap

#4370000
0aaaab

#4500000
b101111100 aaabh
1aaabi

#4540000
b1011111000 aaaar

#4560000
1aaaab

#4600000
0aaabi
1aaabj
1aaabk

#4640000
0aaaat

#4680000
1aaaaa
1aaaad

#4750000
0aaaab

#4880000
b101111100 aaabl
1aaabm

#4920000
b1011111000 aaaav

#4940000
1aaaab

#4960000
b10001110100 aaaaf

#4980000
0aaabm
1aaabn
1aaabo

#5020000
0aaaax

#5060000
1aaaah

#5130000
0aaaab

#5260000
b101111100 aaabp
1aaabq

#5300000
b1011111000 aaaaz

#5320000
1aaaab

#5340000
b10001110100 aaaaj

#5360000
0aaabq
1aaabr
1aaabs

#5400000
0aaabb

#5440000
1aaaal

#5460000
0aaaaa

#5510000
0aaaab

#5640000
b101111100 aaabt
1aaabu

#5680000
b1011111000 aaabd

#5700000
1aaaab

#5720000
b10001110100 aaaan

#5740000
0aaabu
1aaabv
1aaabw

#5780000
0aaabf

#5820000
1aaaap

#5890000
0aaaab

#6020000
b101111100 aaabx
1aaaby

#6060000
b1011111000 aaabh

#6080000
1aaaab

#6100000
b10001110100 aaaar

#6120000
0aaaby
1aaabz
1aaaca

#6160000
0aaabj

#6200000
1aaaat

#6240000
1aaaaa
0aaaad

#6270000
0aaaab

#6400000
b101111100 aaacb
1aaacc

#6440000
b1011111000 aaabl

#6460000
1aaaab

#6480000
b10001110100 aaaav

#6500000
0aaacc
1aaacd
1aaace

#6520000
b10111110000 aaaaf

#6540000
0aaabn

#6580000
1aaaax

#6620000
0aaaah

#6650000
0aaaab

#6780000
b101111100 aaacf
1aaacg

#6820000
b1011111000 aaabp

#6840000
1aaaab

#6860000
b10001110100 aaaaz

#6880000
0aaacg
1aaach
1aaaci

#6900000
b10111110000 aaaaj

#6920000
0aaabr

#6960000
1aaabb

#7000000
0aaaal

#7020000
0aaaaa

#7030000
0aaaab

#7160000
b101111100 aaacj
1aaack

#7200000
b1011111000 aaabt

#7220000
1aaaab

#7240000
b10001110100 aaabd

#7260000
0aaack
1aaacl
1aaacm

#7280000
b10111110000 aaaan

#7300000
0aaabv

#7340000
1aaabf

#7380000
0aaaap

#7410000
0aaaab

#7540000
b101111100 aaacn
1aaaco

#7580000
b1011111000 aaabx

#7600000
1aaaab

#7620000
b10001110100 aaabh

#7640000
0aaaco
1aaacp

#7660000
b10111110000 aaaar

#7680000
0aaabz

#7720000
1aaabj

#7760000
0aaaat

#7790000
0aaaab

#7800000
1aaaaa
1aaaad

#7960000
b1011111000 aaacb

#7980000
1aaaab

#8000000
b10001110100 aaabl

#8040000
b10111110000 aaaav

#8060000
0aaacd

#8080000
b101010100 aaaaf
1aaaag

#8100000
1aaabn

#8140000
0aaaax

#8170000
0aaaab

#8180000
0aaaag
1aaaah

#8340000
b1011111000 aaacf

#8360000
1aaaab

#8380000
b10001110100 aaabp

#8420000
b10111110000 aaaaz

#8440000
0aaach

#8460000
b101010100 aaaaj
1aaaak

#8480000
1aaabr

#8520000
0aaabb

#8550000
0aaaab

#8560000
0aaaak
1aaaal

#8580000
0aaaaa

#8720000
b1011111000 aaacj

#8740000
1aaaab

#8760000
b10001110100 aaabt

#8800000
b10111110000 aaabd

#8820000
0aaacl

#8840000
b101010100 aaaan
1aaaao

#8860000
1aaabv

#8900000
0aaabf

#8930000
0aaaab

#8940000
0aaaao
1aaaap

#9100000
b1011111000 aaacn

#9120000
1aaaab

#9140000
b10001110100 aaabx

#9180000
b10111110000 aaabh

#9200000
0aaacp

#9220000
b101010100 aaaar
1aaaas

#9240000
1aaabz

#9280000
0aaabj

#9310000
0aaaab

#9320000
0aaaas
1aaaat

#9360000
1aaaaa
0aaaad

#9500000
1aaaab

#9520000
b10001110100 aaacb

#9560000
b10111110000 aaabl

#9600000
b101010100 aaaav
1aaaaw

#9620000
1aaacd

#9640000
b1011010000 aaaaf

#9660000
0aaabn

#9690000
0aaaab

#9700000
0aaaaw
1aaaax

#9740000
0aaaah

#9880000
1aaaab

#9900000
b10001110100 aaacf

#9940000
b10111110000 aaabp

#9980000
b101010100 aaaaz
1aaaba

#10000000
1aaach

#10020000
b1011010000 aaaaj

#10040000
0aaabr

#10070000
0aaaab

#10080000
0aaaba
1aaabb

#10120000
0aaaal

#10140000
0aaaaa

#10260000
1aaaab

#10280000
b10001110100 aaacj

#10320000
b10111110000 aaabt

#10360000
b101010100 aaabd
1aaabe

#10380000
1aaacl

#10400000
b1011010000 aaaan

#10420000
0aaabv

#10450000
0aaaab

#10460000
0aaabe
1aaabf

#10500000
0aaaap

#10640000
1aaaab

#10660000
b10001110100 aaacn

#10700000
b10111110000 aaabx

#10740000
b101010100 aaabh
1aaabi

#10760000
1aaacp

#10780000
b1011010000 aaaar

#10800000
0aaabz

#10830000
0aaaab

#10840000
0aaabi
1aaabj

#10880000
0aaaat

#10920000
1aaaaa
1aaaad

#11020000
1aaaab

#11080000
b10111110000 aaacb

#11120000
b101010100 aaabl
1aaabm

#11160000
b1011010000 aaaav

#11180000
0aaacd

#11200000
b10001001100 aaaaf

#11210000
0aaaab

#11220000
0aaabm
1aaabn

#11260000
0aaaax

#11300000
1aaaah

#11400000
1aaaab

#11460000
b10111110000 aaacf

#11500000
b101010100 aaabp
1aaabq

#11540000
b1011010000 aaaaz

#11560000
0aaach

#11580000
b10001001100 aaaaj

#11590000
0aaaab

#11600000
0aaabq
1aaabr

#11640000
0aaabb

#11680000
1aaaal

#11700000
0aaaaa

#11780000
1aaaab

#11840000
b10111110000 aaacj

#11880000
b101010100 aaabt
1aaabu

#11920000
b1011010000 aaabd

#11940000
0aaacl

#11960000
b10001001100 aaaan

#11970000
0aaaab

#11980000
0aaabu
1aaabv

#12020000
0aaabf

#12060000
1aaaap

#12160000
1aaaab

#12220000
b10111110000 aaacn

#12260000
b101010100 aaabx
1aaaby

#12300000
b1011010000 aaabh

#12320000
0aaacp

#12340000
b10001001100 aaaar

#12350000
0aaaab

#12360000
0aaaby
1aaabz

#12400000
0aaabj

#12440000
1aaaat

#12480000
1aaaaa
0aaaad

#12540000
1aaaab

#12640000
b101010100 aaacb
1aaacc

#12680000
b1011010000 aaabl

#12720000
b10001001100 aaaav

#12730000
0aaaab

#12740000
0aaacc
1aaacd

#12760000
b10111001000 aaaaf

#12780000
0aaabn

#12820000
1aaaax

#12860000
0aaaah

#12920000
1aaaab

#13020000
b101010100 aaacf
1aaacg

#13060000
b1011010000 aaabp

#13100000
b10001001100 aaaaz

#13110000
0aaaab

#13120000
0aaacg
1aaach

#13140000
b10111001000 aaaaj

#13160000
0aaabr

#13200000
1aaabb

#13240000
0aaaal

#13260000
0aaaaa

#13300000
1aaaab

#13400000
b101010100 aaacj
1aaack

#13440000
b1011010000 aaabt

#13480000
b10001001100 aaabd

#13490000
0aaaab

#13500000
0aaack
1aaacl

#13520000
b10111001000 aaaan

#13540000
0aaabv

#13580000
1aaabf

#13620000
0aaaap

#13680000
1aaaab

#13780000
b101010100 aaacn
1aaaco

#13820000
b1011010000 aaabx

#13860000
b10001001100 aaabh

#13870000
0aaaab

#13880000
0aaaco
1aaacp

#13900000
b10111001000 aaaar

#13920000
0aaabz

#13960000
1aaabj

#14000000
0aaaat

#14040000
1aaaaa
1aaaad

#14060000
1aaaab

#14200000
b1011010000 aaacb

#14240000
b10001001100 aaabl

#14250000
0aaaab

#14280000
b10111001000 aaaav

#14300000
0aaacd

#14320000
b100101100 aaaaf
1aaaag

#14340000
1aaabn

#14380000
0aaaax

#14420000
0aaaag
1aaaah

#14440000
1aaaab

#14580000
b1011010000 aaacf

#14620000
b10001001100 aaabp

#14630000
0aaaab

#14660000
b10111001000 aaaaz

#14680000
0aaach

#14700000
b100101100 aaaaj
1aaaak

#14720000
1aaabr

#14760000
0aaabb

#14800000
0aaaak
1aaaal

#14820000
0aaaaa
1aaaab

#14960000
b1011010000 aaacj

#15000000
b10001001100 aaabt

#15010000
0aaaab

#15040000
b10111001000 aaabd

#15060000
0aaacl

#15080000
b100101100 aaaan
1aaaao

#15100000
1aaabv

#15140000
0aaabf

#15180000
0aaaao
1aaaap

#15200000
1aaaab

#15340000
b1011010000 aaacn

#15380000
b10001001100 aaabx

#15390000
0aaaab

#15420000
b10111001000 aaabh

#15440000
0aaacp

#15460000
b100101100 aaaar
1aaaas

#15480000
1aaabz

#15520000
0aaabj

#15560000
0aaaas
1aaaat

#15580000
1aaaab

#15600000
1aaaaa
0aaaad

#15760000
b10001001100 aaacb

#15770000
0aaaab

#15800000
b10111001000 aaabl

#15840000
b100101100 aaaav
1aaaaw

#15860000
1aaacd

#15880000
b1010101000 aaaaf

#15900000
0aaabn

#15940000
0aaaaw
1aaaax

#15960000
1aaaab

#15980000
0aaaah

#16140000
b10001001100 aaacf

#16150000
0aaaab

#16180000
b10111001000 aaabp

#16220000
b100101100 aaaaz
1aaaba

#16240000
1aaach

#16260000
b1010101000 aaaaj

#16280000
0aaabr

#16320000
0aaaba
1aaabb

#16340000
1aaaab

#16360000
0aaaal

#16380000
0aaaaa

#16520000
b10001001100 aaacj

#16530000
0aaaab

#16560000
b10111001000 aaabt

#16600000
b100101100 aaabd
1aaabe

#16620000
1aaacl

#16640000
b1010101000 aaaan

#16660000
0aaabv

#16700000
0aaabe
1aaabf

#16720000
1aaaab

#16740000
0aaaap

#16900000
b10001001100 aaacn

#16910000
0aaaab

#16940000
b10111001000 aaabx

#16980000
b100101100 aaabh
1aaabi

#17000000
1aaacp

#17020000
b1010101000 aaaar

#17040000
0aaabz

#17080000
0aaabi
1aaabj

#17100000
1aaaab

#17120000
0aaaat

#17160000
1aaaaa
1aaaad

#17290000
0aaaab

#17320000
b10111001000 aaacb

#17360000
b100101100 aaabl
1aaabm

#17400000
b1010101000 aaaav

#17420000
0aaacd

#17440000
b10000100100 aaaaf

#17460000
0aaabm
1aaabn

#17480000
1aaaab

#17500000
0aaaax

#17540000
1aaaah

#17670000
0aaaab

#17700000
b10111001000 aaacf

#17740000
b100101100 aaabp
1aaabq

#17780000
b1010101000 aaaaz

#17800000
0aaach

#17820000
b10000100100 aaaaj

#17840000
0aaabq
1aaabr

#17860000
1aaaab

#17880000
0aaabb

#17920000
1aaaal

#17940000
0aaaaa

#18050000
0aaaab

#18080000
b10111001000 aaacj

#18120000
b100101100 aaabt
1aaabu

#18160000
b1010101000 aaabd

#18180000
0aaacl

#18200000
b10000100100 aaaan

#18220000
0aaabu
1aaabv

#18240000
1aaaab

#18260000
0aaabf

#18300000
1aaaap

#18430000
0aaaab

#18460000
b10111001000 aaacn

#18500000
b100101100 aaabx
1aaaby

#18540000
b1010101000 aaabh

#18560000
0aaacp

#18580000
b10000100100 aaaar

#18600000
0aaaby
1aaabz

#18620000
1aaaab

#18640000
0aaabj

#18680000
1aaaat

#18720000
1aaaaa
0aaaad

#18810000
0aaaab

#18880000
b100101100 aaacb
1aaacc

#18920000
b1010101000 aaabl

#18960000
b10000100100 aaaav

#18980000
0aaacc
1aaacd

#19000000
1aaaab
b10110100000 aaaaf

#19020000
0aaabn

#19060000
1aaaax

#19100000
0aaaah

#19190000
0aaaab

#19260000
b100101100 aaacf
1aaacg

#19300000
b1010101000 aaabp

#19340000
b10000100100 aaaaz

#19360000
0aaacg
1aaach

#19380000
1aaaab
b10110100000 aaaaj

#19400000
0aaabr

#19440000
1aaabb

#19480000
0aaaal

#19500000
0aaaaa

#19570000
0aaaab

#19640000
b100101100 aaacj
1aaack

#19680000
b1010101000 aaabt

#19720000
b10000100100 aaabd

#19740000
0aaack
1aaacl

#19760000
1aaaab
b10110100000 aaaan

#19780000
0aaabv

#19820000
1aaabf

#19860000
0aaaap

#19950000
0aaaab

#20020000
b100101100 aaacn
1aaaco

#20060000
b1010101000 aaabx

#20100000
b10000100100 aaabh

#20120000
0aaaco
1aaacp

#20140000
1aaaab
b10110100000 aaaar

#20160000
0aaabz

#20200000
1aaabj

#20240000
0aaaat

#20280000
1aaaaa
1aaaad

#20330000
0aaaab

#20440000
b1010101000 aaacb

#20480000
b10000100100 aaabl

#20520000
1aaaab
b10110100000 aaaav

#20540000
0aaacd

#20560000
b100000100 aaaaf
1aaaag

#20580000
1aaabn

#20620000
0aaaax

#20660000
0aaaag
1aaaah

#20710000
0aaaab

#20820000
b1010101000 aaacf

#20860000
b10000100100 aaabp

#20900000
1aaaab
b10110100000 aaaaz

#20920000
0aaach

#20940000
b100000100 aaaaj
1aaaak

#20960000
1aaabr

#21000000
0aaabb

#21040000
0aaaak
1aaaal

#21060000
0aaaaa

#21090000
0aaaab

#21200000
b1010101000 aaacj

#21240000
b10000100100 aaabt

#21280000
1aaaab
b10110100000 aaabd

#21300000
0aaacl

#21320000
b100000100 aaaan
1aaaao

#21340000
1aaabv

#21380000
0aaabf

#21420000
0aaaao
1aaaap

#21470000
0aaaab

#21580000
b1010101000 aaacn

#21620000
b10000100100 aaabx

#21660000
1aaaab
b10110100000 aaabh

#21680000
0aaacp

#21700000
b100000100 aaaar
1aaaas

#21720000
1aaabz

#21760000
0aaabj

#21800000
0aaaas
1aaaat

#21840000
1aaaaa
0aaaad

#21850000
0aaaab

#22000000
b10000100100 aaacb

#22040000
1aaaab
b10110100000 aaabl

#22080000
b100000100 aaaav
1aaaaw

#22100000
1aaacd

#22120000
b1010000000 aaaaf

#22140000
0aaabn

#22180000
0aaaaw
1aaaax

#22220000
0aaaah

#22230000
0aaaab

#22380000
b10000100100 aaacf

#22420000
1aaaab
b10110100000 aaabp

#22460000
b100000100 aaaaz
1aaaba

#22480000
1aaach

#22500000
b1010000000 aaaaj

#22520000
0aaabr

#22560000
0aaaba
1aaabb

#22600000
0aaaal

#22610000
0aaaab

#22620000
0aaaaa

#22760000
b10000100100 aaacj

#22800000
1aaaab
b10110100000 aaabt

#22840000
b100000100 aaabd
1aaabe

#22860000
1aaacl

#22880000
b1010000000 aaaan

#22900000
0aaabv

#22940000
0aaabe
1aaabf

#22980000
0aaaap

#22990000
0aaaab

#23140000
b10000100100 aaacn

#23180000
1aaaab
b10110100000 aaabx

#23220000
b100000100 aaabh
1aaabi

#23240000
1aaacp

#23260000
b1010000000 aaaar

#23280000
0aaabz

#23320000
0aaabi
1aaabj

#23360000
0aaaat

#23370000
0aaaab

#23400000
1aaaaa
1aaaad

#23560000
1aaaab
b10110100000 aaacb

#23600000
b100000100 aaabl
1aaabm

#23640000
b1010000000 aaaav

#23660000
0aaacd

#23680000
b1111111100 aaaaf

#23700000
0aaabm
1aaabn

#23740000
0aaaax

#23750000
0aaaab

#23780000
1aaaah

#23940000
1aaaab
b10110100000 aaacf

#23980000
b100000100 aaabp
1aaabq

#24020000
b1010000000 aaaaz

#24040000
0aaach

#24060000
b1111111100 aaaaj

#24080000
0aaabq
1aaabr

#24120000
0aaabb

#24130000
0aaaab

#24160000
1aaaal

#24180000
0aaaaa

#24320000
1aaaab
b10110100000 aaacj

#24360000
b100000100 aaabt
1aaabu

#24400000
b1010000000 aaabd

#24420000
0aaacl

#24440000
b1111111100 aaaan

#24460000
0aaabu
1aaabv

#24500000
0aaabf

#24510000
0aaaab

#24540000
1aaaap

#24700000
1aaaab
b10110100000 aaacn

#24740000
b100000100 aaabx
1aaaby

#24780000
b1010000000 aaabh

#24800000
0aaacp

#24820000
b1111111100 aaaar

#24840000
0aaaby
1aaabz

#24880000
0aaabj

#24890000
0aaaab

#24920000
1aaaat

#24960000
1aaaaa
0aaaad

#25080000
1aaaab

#25120000
b100000100 aaacb
1aaacc

#25160000
b1010000000 aaabl

#25200000
b1111111100 aaaav

#25220000
0aaacc
1aaacd

#25240000
b10101111000 aaaaf

#25260000
0aaabn

#25270000
0aaaab

#25300000
1aaaax

#25340000
0aaaah

#25460000
1aaaab

#25500000
b100000100 aaacf
1aaacg

#25540000
b1010000000 aaabp

#25580000
b1111111100 aaaaz

#25600000
0aaacg
1aaach

#25620000
b10101111000 aaaaj

#25640000
0aaabr

#25650000
0aaaab

#25680000
1aaabb

#25720000
0aaaal

#25740000
0aaaaa

#25840000
1aaaab

#25880000
b100000100 aaacj
1aaack

#25920000
b1010000000 aaabt

#25960000
b1111111100 aaabd

#25980000
0aaack
1aaacl

#26000000
b10101111000 aaaan

#26020000
0aaabv

#26030000
0aaaab

#26060000
1aaabf

#26100000
0aaaap

#26220000
1aaaab

#26260000
b100000100 aaacn
1aaaco

#26300000
b1010000000 aaabx

#26340000
b1111111100 aaabh

#26360000
0aaaco
1aaacp

#26380000
b10101111000 aaaar

#26400000
0aaabz

#26410000
0aaaab

#26440000
1aaabj

#26480000
0aaaat

#26520000
1aaaaa
1aaaad

#26600000
1aaaab

#26680000
b1010000000 aaacb

#26720000
b1111111100 aaabl

#26760000
b10101111000 aaaav

#26780000
0aaacd

#26790000
0aaaab

#26800000
b11011100 aaaaf
1aaaag

#26820000
1aaabn

#26860000
0aaaax

#26900000
0aaaag
1aaaah

#26980000
1aaaab

#27060000
b1010000000 aaacf

#27100000
b1111111100 aaabp

#27140000
b10101111000 aaaaz

#27160000
0aaach

#27170000
0aaaab

#27180000
b11011100 aaaaj
1aaaak

#27200000
1aaabr

#27240000
0aaabb

#27280000
0aaaak
1aaaal

#27300000
0aaaaa

#27360000
1aaaab

#27440000
b1010000000 aaacj

#27480000
b1111111100 aaabt

#27520000
b10101111000 aaabd

#27540000
0aaacl

#27550000
0aaaab

#27560000
b11011100 aaaan
1aaaao

#27580000
1aaabv

#27620000
0aaabf

#27660000
0aaaao
1aaaap

#27740000
1aaaab

#27820000
b1010000000 aaacn

#27860000
b1111111100 aaabx

#27900000
b10101111000 aaabh

#27920000
0aaacp

#27930000
0aaaab

#27940000
b11011100 aaaar
1aaaas

#27960000
1aaabz

#28000000
0aaabj

#28040000
0aaaas
1aaaat

#28080000
1aaaaa
0aaaad

#28120000
1aaaab

#28240000
b1111111100 aaacb

#28280000
b10101111000 aaabl

#28310000
0aaaab

#28320000
b11011100 aaaav
1aaaaw

#28340000
1aaacd

#28360000
b1001011000 aaaaf

#28380000
0aaabn

#28420000
0aaaaw
1aaaax

#28460000
0aaaah

#28500000
1aaaab

#28620000
b1111111100 aaacf

#28660000
b10101111000 aaabp

#28690000
0aaaab

#28700000
b11011100 aaaaz
1aaaba

#28720000
1aaach

#28740000
b1001011000 aaaaj

#28760000
0aaabr

#28800000
0aaaba
1aaabb

#28840000
0aaaal

#28860000
0aaaaa

#28880000
1aaaab

#29000000
b1111111100 aaacj

#29040000
b10101111000 aaabt

#29070000
0aaaab

#29080000
b11011100 aaabd
1aaabe

#29100000
1aaacl

#29120000
b1001011000 aaaan

#29140000
0aaabv

#29180000
0aaabe
1aaabf

#29220000
0aaaap

#29260000
1aaaab

#29380000
b1111111100 aaacn

#29420000
b10101111000 aaabx

#29450000
0aaaab

#29460000
b11011100 aaabh
1aaabi

#29480000
1aaacp

#29500000
b1001011000 aaaar

#29520000
0aaabz

#29560000
0aaabi
1aaabj

#29600000
0aaaat

#29640000
1aaaaa
1aaaab
1aaaad

#29800000
b10101111000 aaacb

#29830000
0aaaab

#29840000
b11011100 aaabl
1aaabm

#29880000
b1001011000 aaaav

#29900000
0aaacd

#29920000
b1111010100 aaaaf

#29940000
0aaabm
1aaabn

#29980000
0aaaax

#30020000
1aaaab
1aaaah

#30180000
b10101111000 aaacf

#30210000
0aaaab

#30220000
b11011100 aaabp
1aaabq

#30260000
b1001011000 aaaaz

#30280000
0aaach

#30300000
b1111010100 aaaaj

#30320000
0aaabq
1aaabr

#30360000
0aaabb

#30400000
1aaaab
1aaaal

#30420000
0aaaaa

#30560000
b10101111000 aaacj

#30590000
0aaaab

#30600000
b11011100 aaabt
1aaabu

#30640000
b1001011000 aaabd

#30660000
0aaacl

#30680000
b1111010100 aaaan

#30700000
0aaabu
1aaabv

#30740000
0aaabf

#30780000
1aaaab
1aaaap

#30940000
b10101111000 aaacn

#30970000
0aaaab

#30980000
b11011100 aaabx
1aaaby

#31020000
b1001011000 aaabh

#31040000
0aaacp

#31060000
b1111010100 aaaar

#31080000
0aaaby
1aaabz

#31120000
0aaabj

#31160000
1aaaab
1aaaat

#31200000
1aaaaa
0aaaad

#31350000
0aaaab

#31360000
b11011100 aaacb
1aaacc

#31400000
b1001011000 aaabl

#31440000
b1111010100 aaaav

#31460000
0aaacc
1aaacd

#31480000
b10101010000 aaaaf

#31500000
0aaabn

#31540000
1aaaab
1aaaax

#31580000
0aaaah

#31730000
0aaaab

#31740000
b11011100 aaacf
1aaacg

#31780000
b1001011000 aaabp

#31820000
b1111010100 aaaaz

#31840000
0aaacg
1aaach

#31860000
b10101010000 aaaaj

#31880000
0aaabr

#31920000
1aaaab
1aaabb

#31960000
0aaaal

#31980000
0aaaaa

#32110000
0aaaab

#32120000
b11011100 aaacj
1aaack

#32160000
b1001011000 aaabt

#32200000
b1111010100 aaabd

#32220000
0aaack
1aaacl

#32240000
b10101010000 aaaan

#32260000
0aaabv

#32300000
1aaaab
1aaabf

#32340000
0aaaap

#32490000
0aaaab

#32500000
b11011100 aaacn
1aaaco

#32540000
b1001011000 aaabx

#32580000
b1111010100 aaabh

#32600000
0aaaco
1aaacp

#32620000
b10101010000 aaaar

#32640000
0aaabz

#32680000
1aaaab
1aaabj

#32720000
0aaaat

#32760000
1aaaaa
1aaaad

#32870000
0aaaab

#32920000
b1001011000 aaacb

#32960000
b1111010100 aaabl

#33000000
b10101010000 aaaav

#33020000
0aaacd

#33040000
b10110100 aaaaf
1aaaag

#33060000
1aaaab
1aaabn

#33100000
0aaaax

#33140000
0aaaag
1aaaah

#33250000
0aaaab

#33300000
b1001011000 aaacf

#33340000
b1111010100 aaabp

#33380000
b10101010000 aaaaz

#33400000
0aaach

#33420000
b10110100 aaaaj
1aaaak

#33440000
1aaaab
1aaabr

#33480000
0aaabb

#33520000
0aaaak
1aaaal

#33540000
0aaaaa

#33630000
0aaaab

#33680000
b1001011000 aaacj

#33720000
b1111010100 aaabt

#33760000
b10101010000 aaabd

#33780000
0aaacl

#33800000
b10110100 aaaan
1aaaao

#33820000
1aaaab
1aaabv

#33860000
0aaabf

#33900000
0aaaao
1aaaap

#34010000
0aaaab

#34060000
b1001011000 aaacn

#34100000
b1111010100 aaabx

#34140000
b10101010000 aaabh

#34160000
0aaacp

#34180000
b10110100 aaaar
1aaaas

#34200000
1aaaab
1aaabz

#34240000
0aaabj

#34280000
0aaaas
1aaaat

#34320000
1aaaaa
0aaaad

#34390000
0aaaab

#34480000
b1111010100 aaacb

#34520000
b10101010000 aaabl

#34560000
b10110100 aaaav
1aaaaw

#34580000
1aaaab
1aaacd

#34600000
b1000110000 aaaaf

#34620000
0aaabn

#34660000
0aaaaw
1aaaax

#34700000
0aaaah

#34770000
0aaaab

#34860000
b1111010100 aaacf

#34900000
b10101010000 aaabp

#34940000
b10110100 aaaaz
1aaaba

#34960000
1aaaab
1aaach

#34980000
b1000110000 aaaaj

#35000000
0aaabr

#35040000
0aaaba
1aaabb

#35080000
0aaaal

#35100000
0aaaaa

#35150000
0aaaab

#35240000
b1111010100 aaacj

#35280000
b10101010000 aaabt

#35320000
b10110100 aaabd
1aaabe

#35340000
1aaaab
1aaacl

#35360000
b1000110000 aaaan

#35380000
0aaabv

#35420000
0aaabe
1aaabf

#35460000
0aaaap

#35530000
0aaaab

#35620000
b1111010100 aaacn

#35660000
b10101010000 aaabx

#35700000
b10110100 aaabh
1aaabi

#35720000
1aaaab
1aaacp

#35740000
b1000110000 aaaar

#35760000
0aaabz

#35800000
0aaabi
1aaabj

#35840000
0aaaat

#35880000
1aaaaa
1aaaad

#35910000
0aaaab

#36040000
b10101010000 aaacb

#36080000
b10110100 aaabl
1aaabm

#36100000
1aaaab

#36120000
b1000110000 aaaav

#36140000
0aaacd

#36160000
b1110101100 aaaaf

#36180000
0aaabm
1aaabn

#36220000
0aaaax

#36260000
1aaaah

#36290000
0aaaab

#36420000
b10101010000 aaacf

#36460000
b10110100 aaabp
1aaabq

#36480000
1aaaab

#36500000
b1000110000 aaaaz

#36520000
0aaach

#36540000
b1110101100 aaaaj

#36560000
0aaabq
1aaabr

#36600000
0aaabb

#36640000
1aaaal

